…
# I’m a Star Wars fan !

### Description of the dataset

``` r
starwars1 <- na.omit(starwars)
starwars1
```

    ## # A tibble: 29 x 14
    ##    name    height  mass hair_color  skin_color eye_color birth_year sex   gender
    ##    <chr>    <int> <dbl> <chr>       <chr>      <chr>          <dbl> <chr> <chr> 
    ##  1 Luke S~    172    77 blond       fair       blue            19   male  mascu~
    ##  2 Darth ~    202   136 none        white      yellow          41.9 male  mascu~
    ##  3 Leia O~    150    49 brown       light      brown           19   fema~ femin~
    ##  4 Owen L~    178   120 brown, grey light      blue            52   male  mascu~
    ##  5 Beru W~    165    75 brown       light      blue            47   fema~ femin~
    ##  6 Biggs ~    183    84 black       light      brown           24   male  mascu~
    ##  7 Obi-Wa~    182    77 auburn, wh~ fair       blue-gray       57   male  mascu~
    ##  8 Anakin~    188    84 blond       fair       blue            41.9 male  mascu~
    ##  9 Chewba~    228   112 brown       unknown    blue           200   male  mascu~
    ## 10 Han So~    180    80 brown       fair       brown           29   male  mascu~
    ## # ... with 19 more rows, and 5 more variables: homeworld <chr>, species <chr>,
    ## #   films <list>, vehicles <list>, starships <list>
…
