…
## Group by and Summarise

``` r
na.omit(gapminder) %>%
  group_by(country) %>%
  summarize(total_fertility = sum (fertility))
```

    ## # A tibble: 178 x 2
    ##    country             total_fertility
    ##    <fct>                         <dbl>
    ##  1 Albania                        83.9
    ##  2 Algeria                       278. 
    ##  3 Angola                        185. 
    ##  4 Antigua and Barbuda            48.5
    ##  5 Argentina                     150. 
    ##  6 Armenia                        36.8
    ##  7 Australia                     114. 
    ##  8 Austria                        92.2
    ##  9 Azerbaijan                     49.8
    ## 10 Bahamas                       121. 
    ## # ... with 168 more rows
…
